{
  "usingComponents": {
    "header": "/components/header/header"
  },
  "navigationBarBackgroundColor": "#1e2023",
  "navigationBarTitleText": "询价单",
  "navigationBarTextStyle": "white",
  "enablePullDownRefresh": false
}